{
  "builders": [
    {
      "boot_command": [
        "<tab> text ks=http://{{ .HTTPIP }}:{{ .HTTPPort }}/http/ks.cfg<enter>"
      ],
      "guest_os_type": "RedHat_64",
      "headless": "false",
      "http_directory": ".",
      "iso_checksum_type": "md5",
      "iso_checksum": "99d305fa40ec9e28ef8450c3bcc45f85",
      "iso_urls": [
        "CentOS-7-x86_64-NetInstall-1511.iso",
        "http://mirror.globo.com/centos/7.2.1511/isos/x86_64/CentOS-7-x86_64-NetInstall-1511.iso"
      ],
      "shutdown_command": "echo 'vagrant' | sudo -S /sbin/halt -h -p",
      "ssh_password": "vagrant",
      "ssh_username": "vagrant",
      "ssh_wait_timeout": "50000s",
      "type": "virtualbox-iso",
      "vboxmanage": [
        [
          "modifyvm",
          "{{.Name}}",
          "--memory",
          "2048"
        ],
        [
          "modifyvm",
          "{{.Name}}",
          "--cpus",
          "4"
        ]
      ],
      "vm_name": "centos7.2"
    }
  ],
  "post-processors": [
    {
      "type": "vagrant",
      "output": "../centos7x64-gitlab.box",
      "keep_input_artifact": false
    }
  ],
  "provisioners": [
    {
      "execute_command": "echo 'vagrant' | {{.Vars}} sudo -S -E bash '{{.Path}}'",
      "scripts": [
        "scripts/vagrant.sh",
        "scripts/virtualbox.sh",
        "scripts/sysadmin.sh",
        "scripts/gitlab.sh",
        "scripts/cleanup.sh"
      ],
      "type": "shell"
    }
  ]

}
